BollingerBands
…
#Trying a differnt (cleaner way to get the data)
SPY2 <- tq_get("SPY")

# SPY2 %>%
#     tq_mutate(x_fun = Cl, mutate_fun = SMA, n = 20) %>%
#     rename(SMA.20 = SMA)

# Had a bunch of issues with the mutate functions that were provided by the library
# unzip(A)
SPY2 %<>%
    mutate(SMA.close = SMA(unlist(SPY2[,2]), n=20)) 

head(SPY2,30)

## # A tibble: 30 x 8
##    date        open  high   low close    volume adjusted SMA.close
##    <date>     <dbl> <dbl> <dbl> <dbl>     <dbl>    <dbl>     <dbl>
##  1 2009-01-02  90.4  93.4  89.8  93.0 227566300     75.5        NA
##  2 2009-01-05  92.6  93.7  91.9  92.8 240349700     75.4        NA
##  3 2009-01-06  93.6  94.4  92.7  93.5 328260900     75.9        NA
##  4 2009-01-07  92    92.3  90.2  90.7 280899200     73.6        NA
##  5 2009-01-08  90.2  91.1  89.7  91.0 263834400     73.9        NA
##  6 2009-01-09  91.2  91.3  85.4  89.1 330953600     72.3        NA
##  7 2009-01-12  88.8  88.9  86.4  86.9 277858500     70.6        NA
##  8 2009-01-13  86.7  87.9  86.2  87.1 356432300     70.7        NA
##  9 2009-01-14  85.5  85.8  83.2  84.4 435491600     68.5        NA
## 10 2009-01-15  84.1  85.2  81.7  84.4 532647300     68.5        NA
## #  with 20 more rows
…
